\relax 
\@writefile{toc}{\contentsline {chapter}{\numberline {1}REQUISITI}{3}\protected@file@percent }
\@writefile{lof}{\addvspace {10\p@ }}
\@writefile{lot}{\addvspace {10\p@ }}
\@writefile{toc}{\contentsline {chapter}{\numberline {2}PROGETTAZIONE ARDUINO}{6}\protected@file@percent }
\@writefile{lof}{\addvspace {10\p@ }}
\@writefile{lot}{\addvspace {10\p@ }}
\@writefile{toc}{\contentsline {section}{\numberline {2.1}GreenHouseController}{6}\protected@file@percent }
\@writefile{toc}{\contentsline {subsection}{\numberline {2.1.1}Task}{6}\protected@file@percent }
\@writefile{toc}{\contentsline {subsubsection}{2.1.1.1 Led}{6}\protected@file@percent }
\@writefile{toc}{\contentsline {subsubsection}{2.1.1.2 Servo Motore}{7}\protected@file@percent }
\@writefile{toc}{\contentsline {subsubsection}{2.1.1.3 Sonar}{8}\protected@file@percent }
\@writefile{toc}{\contentsline {subsubsection}{2.1.1.4 BTMessage}{9}\protected@file@percent }
\@writefile{toc}{\contentsline {subsubsection}{2.1.1.5 GreenController}{10}\protected@file@percent }
\@writefile{toc}{\contentsline {chapter}{\numberline {3}PRO E CONTRO}{12}\protected@file@percent }
\@writefile{lof}{\addvspace {10\p@ }}
\@writefile{lot}{\addvspace {10\p@ }}
\@writefile{toc}{\contentsline {section}{\numberline {3.1}PRO:}{12}\protected@file@percent }
\@writefile{toc}{\contentsline {section}{\numberline {3.2}CONTRO:}{12}\protected@file@percent }
\@writefile{toc}{\contentsline {chapter}{\numberline {4}PERIODO DEI VARI TASK}{13}\protected@file@percent }
\@writefile{lof}{\addvspace {10\p@ }}
\@writefile{lot}{\addvspace {10\p@ }}
\@writefile{toc}{\contentsline {chapter}{\numberline {5}PROGETTAZIONE ESP}{14}\protected@file@percent }
\@writefile{lof}{\addvspace {10\p@ }}
\@writefile{lot}{\addvspace {10\p@ }}
\@writefile{toc}{\contentsline {section}{\numberline {5.1}GreenHouseEdge}{14}\protected@file@percent }
\@writefile{toc}{\contentsline {chapter}{\numberline {6}PROGETTAZIONE SERVER}{15}\protected@file@percent }
\@writefile{lof}{\addvspace {10\p@ }}
\@writefile{lot}{\addvspace {10\p@ }}
\@writefile{toc}{\contentsline {section}{\numberline {6.1}GreenHouseServer}{15}\protected@file@percent }
\@writefile{toc}{\contentsline {subsection}{\numberline {6.1.1}GreenHouseConsole.java}{15}\protected@file@percent }
\@writefile{toc}{\contentsline {subsection}{\numberline {6.1.2}Controller.java}{15}\protected@file@percent }
\@writefile{toc}{\contentsline {subsection}{\numberline {6.1.3}MonitoringMessage.java}{16}\protected@file@percent }
\@writefile{toc}{\contentsline {subsection}{\numberline {6.1.4}Serverconnectjdbc.java}{16}\protected@file@percent }
\@writefile{toc}{\contentsline {subsection}{\numberline {6.1.5}DataService.java}{17}\protected@file@percent }
\@writefile{toc}{\contentsline {chapter}{\numberline {7}PROGETTAZIONE DATABASE}{18}\protected@file@percent }
\@writefile{lof}{\addvspace {10\p@ }}
\@writefile{lot}{\addvspace {10\p@ }}
\@writefile{toc}{\contentsline {section}{\numberline {7.1}greenhouseserver DATABASE}{18}\protected@file@percent }
\@writefile{toc}{\contentsline {chapter}{\numberline {8}PROGETTAZIONE ANDROID}{20}\protected@file@percent }
\@writefile{lof}{\addvspace {10\p@ }}
\@writefile{lot}{\addvspace {10\p@ }}
\@writefile{toc}{\contentsline {section}{\numberline {8.1}GreenHouseMobileApp}{20}\protected@file@percent }
\@writefile{toc}{\contentsline {subsection}{\numberline {8.1.1}Classi riutilizzate}{20}\protected@file@percent }
\@writefile{toc}{\contentsline {subsection}{\numberline {8.1.2}MainActivity}{21}\protected@file@percent }
\@writefile{toc}{\contentsline {chapter}{\numberline {9}PROGETTAZIONE FRONT-END}{23}\protected@file@percent }
\@writefile{lof}{\addvspace {10\p@ }}
\@writefile{lot}{\addvspace {10\p@ }}
\@writefile{toc}{\contentsline {section}{\numberline {9.1}GreenHouseFrontEnd}{23}\protected@file@percent }
\@writefile{toc}{\contentsline {section}{\numberline {9.2}RIEPILOGO}{24}\protected@file@percent }
\@writefile{toc}{\contentsline {chapter}{\numberline {10}SCHEMA FRITZING DEL SISTEMA }{26}\protected@file@percent }
\@writefile{lof}{\addvspace {10\p@ }}
\@writefile{lot}{\addvspace {10\p@ }}
